"Nombre Producto","SKU","Disponible domicilio","Disponible Tienda"
"Smartwatch Apple Watch Series 3 GPS, 38 mm Space Grey Aluminium case with Black Sport Band","37434","true","true"
"Funda para Tablet 7"" Negra con Gris","28509","false","true"
"Funda para Tablet 8"" Magenta","38859","false","true"
"Soporte Tablet 7-11""","32798","true","true"
"Mica Protectora para iPad Mini 5 y iPad Mini 4","42939","true","true"
"iPad Pro de 12,9"" 128 GB chip M1 Wi‑Fi Space Gray","41689","true","true"
